Chapter 23 Comparing Means/Quantities using Two Paired Samples | Data Science for Biological, Medical and Health Research: Notes for PQHS 431
…
            Data Science for Biological, Medical and Health Research: Notes for PQHS 431

Chapter 23 Comparing Means/Quantities using Two Paired Samples

Here, we’ll consider the problem of estimating a confidence interval to describe the difference in population means (or medians) based on a comparison of two samples of quantitative data, gathered using a matched pairs design. Specifically, we’ll use as our example the Lead in the Blood of Children study, described in Section 22.

Recall that in that study, we measured blood lead content, in mg/dl, for 33 matched pairs of children, one of which was exposed (had a parent working in a battery factory) and the other of which was control (no parent in the battery factory, but matched to the exposed child by age, exposure to traffic and neighborhood). We then created a variable called lead_diff which contained the (exposed - control) differences within each pair.

bloodlead

# A tibble: 33 x 4
   pair  exposed control lead_diff
   <fct>   <dbl>   <dbl>     <dbl>
 1 P01        38      16        22
 2 P02        23      18         5
 3 P03        41      18        23
 4 P04        18      24        -6
 5 P05        37      19        18
 6 P06        36      11        25
 7 P07        23      10        13
 8 P08        62      15        47
 9 P09        31      16        15
10 P10        34      18        16
# ... with 23 more rows
…
