Chapter 3 Visualizing Data | Data Science for Biological, Medical and Health Research: Notes for PQHS 431
…
To begin, we’ll gather a random sample of 1,000 subjects participating in NHANES, and then identify several variables of interest about those subjects1. The motivation for this example came from a Figure in Baumer, Kaplan, and Horton (2017).

# library(NHANES) # already loaded NHANES package/library of functions, data

set.seed(431001) 
# use set.seed to ensure that we all get the same random sample 
# of 1,000 NHANES subjects in our nh_data collection

nh_data <- sample_n(NHANES, size = 1000) %>%
    select(ID, Gender, Age, Height, Weight, BMI, Pulse, Race1, HealthGen, Diabetes)

nh_data

# A tibble: 1,000 x 10
      ID Gender   Age Height Weight   BMI Pulse Race1   HealthGen Diabetes
   <int> <fct>  <int>  <dbl>  <dbl> <dbl> <int> <fct>   <fct>     <fct>   
 1 69638 female     5   106.   19.3  17      NA White   <NA>      No      
 2 70782 male      64   176.   79.4  25.7    78 White   Vgood     No      
 3 52408 female    54   162.   67.9  25.9    80 White   Vgood     No      
 4 59031 female    15   155.   46.2  19.3    NA White   <NA>      No      
 5 64530 male      53   185.  140.   41     100 White   Good      No      
 6 71040 male      63   169.   85.1  29.9    70 White   Good      No      
 7 55186 female    30   168.   73.3  25.9    76 Mexican Good      No      
 8 60211 male       5   103.   14.9  14.1    NA White   <NA>      No      
 9 55730 male      66   161.   62.5  24.0    78 Black   Vgood     No      
10 68229 female    36   170.   88.9  30.8    90 White   Vgood     No      
# ... with 990 more rows
…
3.5 A Subset: Ages 21-79

Suppose we wanted to look at a subset of our sample - those observations (subjects) whose Age is at least 21 and at most 79. We’ll create that sample below, and also subset the variables to include nine of particular interest, and remove any observations with any missingness on any of the nine variables we’re including here.

nh_data_2179 <- nh_data %>%
    filter(Age > 20 & Age < 80) %>%
    select(ID, Gender, Age, Height, Weight, BMI, Pulse, Race1, HealthGen, Diabetes) %>%
    na.omit

nh_data_2179

# A tibble: 603 x 10
      ID Gender   Age Height Weight   BMI Pulse Race1   HealthGen Diabetes
   <int> <fct>  <int>  <dbl>  <dbl> <dbl> <int> <fct>   <fct>     <fct>   
 1 70782 male      64   176.   79.4  25.7    78 White   Vgood     No      
 2 52408 female    54   162.   67.9  25.9    80 White   Vgood     No      
 3 64530 male      53   185.  140.   41     100 White   Good      No      
 4 71040 male      63   169.   85.1  29.9    70 White   Good      No      
 5 55186 female    30   168.   73.3  25.9    76 Mexican Good      No      
 6 55730 male      66   161.   62.5  24.0    78 Black   Vgood     No      
 7 68229 female    36   170.   88.9  30.8    90 White   Vgood     No      
 8 63762 male      23   180.   92.2  28.3    66 White   Vgood     Yes     
 9 66290 female    63   162.   61.3  23.4    88 White   Fair      No      
10 66984 male      75   174.  132.   43.7    84 White   Vgood     No      
# ... with 593 more rows
…
