Chapter 24 Comparing Proportions/Rates using Two Paired Samples | Data Science for Biological, Medical and Health Research: Notes for PQHS 431
…
Total
21
20
41

24.1.1 Working with the specialty data

I’ve gathered the complete data (for all 273 clinics reported in Bisgaier and Rhodes (2011)) into a table called specialty.

specialty

# A tibble: 546 x 4
   clinic_id clinic_type insurance appointment
   <chr>     <chr>       <chr>     <chr>      
 1 C-001     Psychiatry  Private   Accepted   
 2 C-001     Psychiatry  Public    Accepted   
 3 C-002     Asthma      Private   Accepted   
 4 C-002     Asthma      Public    Denied     
 5 C-003     Orthopedics Private   Accepted   
 6 C-003     Orthopedics Public    Accepted   
 7 C-004     Orthopedics Private   Accepted   
 8 C-004     Orthopedics Public    Accepted   
 9 C-005     Orthopedics Private   Accepted   
10 C-005     Orthopedics Public    Denied     
# ... with 536 more rows
…
but this represents the data as a single count for each of the 82 calls that was made to a Psychiatry clinic, without accounting for the pairing by clinic_id (since each clinic provides a result for a Private and a Public call.) A proper table that accounts for the pairing should wind up with 41 clinics being represented, not the 82 individual calls.

24.1.2 Using pivot_wider to get a paired samples table

So let’s go back to the full specialty data, with 273 clinics and 546 calls. We want to “widen” the tibble, creating more columns but half as many rows, so that our new tibble has 273 rows (one per clinic) as opposed to 546 rows (one per call). To accomplish this, we’ll use pivot_wider, creating more columns but fewer rows.

specialty_wider <- specialty %>%
    pivot_wider(names_from = insurance,
                values_from = appointment)

specialty_wider

# A tibble: 273 x 4
   clinic_id clinic_type Private  Public  
   <chr>     <chr>       <chr>    <chr>   
 1 C-001     Psychiatry  Accepted Accepted
 2 C-002     Asthma      Accepted Denied  
 3 C-003     Orthopedics Accepted Accepted
 4 C-004     Orthopedics Accepted Accepted
 5 C-005     Orthopedics Accepted Denied  
 6 C-006     Orthopedics Accepted Denied  
 7 C-007     Orthopedics Accepted Denied  
 8 C-008     Neurology   Accepted Accepted
 9 C-009     Psychiatry  Denied   Denied  
10 C-010     Orthopedics Accepted Denied  
# ... with 263 more rows
…
