Chapter 18 A Study Comparing Two Independent Samples: Ibuprofen in Sepsis Trial | Data Science for Biological, Medical and Health Research: Notes for PQHS 431
…
The data in the sepsis.csv file also contains the subject’s

id, which is just a code

race (three levels: White, AfricanA or Other)

apache = baseline APACHE II score, a severity of disease score ranging from 0 to 71 with higher scores indicating more severe disease and a higher mortality risk

temp_0 = baseline temperature, degrees Celsius.

but we’ll ignore those for now.

sepsis 

# A tibble: 300 x 6
   id    treat     race     apache temp_0 temp_drop
   <chr> <chr>     <chr>     <dbl>  <dbl>     <dbl>
 1 S002  Ibuprofen AfricanA     14   38.7       1.4
 2 S004  Ibuprofen White         3   38.3       0.4
 3 S005  Placebo   White         5   38.6       0  
 4 S006  Ibuprofen White        13   38.2      -0.2
 5 S009  Ibuprofen White        25   38.2       0.6
 6 S011  Ibuprofen White        21   38.1      -0.4
 7 S012  Placebo   White        14   38.6      -0.1
 8 S014  Placebo   White        23   37.9       0.3
 9 S016  Placebo   White        16   38.1       0.1
10 S020  Ibuprofen Other        20   39.2       1.5
# ... with 290 more rows
…
