Chapter 16 The Serum Zinc Study | Data Science for Biological, Medical and Health Research: Notes for PQHS 431
…
            Data Science for Biological, Medical and Health Research: Notes for PQHS 431

Chapter 16 The Serum Zinc Study

16.1 Serum Zinc Levels in 462 Teenage Males (serzinc)

The serzinc data include serum zinc levels in micrograms per deciliter that have been gathered for a sample of 462 males aged 15-17, My source for these data is Appendix B1 of Pagano and Gauvreau (2000). Serum zinc deficiency has been associated with anemia, loss of strength and endurance, and it is thought that 25% of the world’s population is at risk of zinc deficiency. Such a deficiency can indicate poor nutrition, and can affect growth and vision, for instance. “Typical” values10 are said to be 0.66-1.10 mcg/ml, which is 66 - 110 micrograms per deciliter.

serzinc

# A tibble: 462 x 2
   ID     zinc
   <chr> <dbl>
 1 M-001   142
 2 M-002    88
 3 M-003    83
 4 M-004   100
 5 M-005   123
 6 M-006    63
 7 M-007   102
 8 M-008    80
 9 M-009   117
10 M-010    86
# ... with 452 more rows
…
