Chapter 12 Studying Crab Claws (crabs) | Data Science for Biological, Medical and Health Research: Notes for PQHS 431
…
12 Cancer productus, one of several species of red rock crabs (12)

crabs <- read_csv("data/crabs.csv") 

Parsed with column specification:
cols(
  crab = col_double(),
  species = col_character(),
  force = col_double(),
  height = col_double()
)

crabs

# A tibble: 38 x 4
    crab species              force height
   <dbl> <chr>                <dbl>  <dbl>
 1     1 Hemigraspus nudus      4      8  
 2     2 Lophopanopeus bellus  15.1    7.9
 3     3 Cancer productus       5      6.7
 4     4 Lophopanopeus bellus   2.9    6.6
 5     5 Hemigraspus nudus      3.2    5  
 6     6 Hemigraspus nudus      9.5    7.9
 7     7 Cancer productus      22.5    9.4
 8     8 Hemigraspus nudus      7.4    8.3
 9     9 Cancer productus      14.6   11.2
10    10 Lophopanopeus bellus   8.7    8.6
# ... with 28 more rows
…
